%YAML 1.1
%TAG !u! tag:unity3d.com,2011:
--- !u!1 &449525235004801859
GameObject:
  m_ObjectHideFlags: 0
  m_CorrespondingSourceObject: {fileID: 0}
  m_PrefabInstance: {fileID: 0}
  m_PrefabAsset: {fileID: 0}
  serializedVersion: 6
  m_Component:
  - component: {fileID: 3398833595453883835}
  - component: {fileID: 6711674736343100256}
  m_Layer: 0
  m_Name: New Palette
  m_TagString: Untagged
  m_Icon: {fileID: 0}
  m_NavMeshLayer: 0
  m_StaticEditorFlags: 0
  m_IsActive: 1
--- !u!4 &3398833595453883835
Transform:
  m_ObjectHideFlags: 0
  m_CorrespondingSourceObject: {fileID: 0}
  m_PrefabInstance: {fileID: 0}
  m_PrefabAsset: {fileID: 0}
  m_GameObject: {fileID: 449525235004801859}
  m_LocalRotation: {x: 0, y: 0, z: 0, w: 1}
  m_LocalPosition: {x: 0, y: 0, z: 0}
  m_LocalScale: {x: 1, y: 1, z: 1}
  m_ConstrainProportionsScale: 0
  m_Children:
  - {fileID: 7888373366196104620}
  m_Father: {fileID: 0}
  m_RootOrder: 0
  m_LocalEulerAnglesHint: {x: 0, y: 0, z: 0}
--- !u!156049354 &6711674736343100256
Grid:
  m_ObjectHideFlags: 0
  m_CorrespondingSourceObject: {fileID: 0}
  m_PrefabInstance: {fileID: 0}
  m_PrefabAsset: {fileID: 0}
  m_GameObject: {fileID: 449525235004801859}
  m_Enabled: 1
  m_CellSize: {x: 0.16, y: 0.16, z: 0}
  m_CellGap: {x: 0, y: 0, z: 0}
  m_CellLayout: 0
  m_CellSwizzle: 0
--- !u!1 &3225719786266758064
GameObject:
  m_ObjectHideFlags: 0
  m_CorrespondingSourceObject: {fileID: 0}
  m_PrefabInstance: {fileID: 0}
  m_PrefabAsset: {fileID: 0}
  serializedVersion: 6
  m_Component:
  - component: {fileID: 7888373366196104620}
  - component: {fileID: 3996286771206035568}
  - component: {fileID: 1046818167030005730}
  m_Layer: 0
  m_Name: Layer1
  m_TagString: Untagged
  m_Icon: {fileID: 0}
  m_NavMeshLayer: 0
  m_StaticEditorFlags: 0
  m_IsActive: 1
--- !u!4 &7888373366196104620
Transform:
  m_ObjectHideFlags: 0
  m_CorrespondingSourceObject: {fileID: 0}
  m_PrefabInstance: {fileID: 0}
  m_PrefabAsset: {fileID: 0}
  m_GameObject: {fileID: 3225719786266758064}
  m_LocalRotation: {x: -0, y: -0, z: -0, w: 1}
  m_LocalPosition: {x: 0, y: 0, z: 0}
  m_LocalScale: {x: 1, y: 1, z: 1}
  m_ConstrainProportionsScale: 0
  m_Children: []
  m_Father: {fileID: 3398833595453883835}
  m_RootOrder: 0
  m_LocalEulerAnglesHint: {x: 0, y: 0, z: 0}
--- !u!1839735485 &3996286771206035568
Tilemap:
  m_ObjectHideFlags: 0
  m_CorrespondingSourceObject: {fileID: 0}
  m_PrefabInstance: {fileID: 0}
  m_PrefabAsset: {fileID: 0}
  m_GameObject: {fileID: 3225719786266758064}
  m_Enabled: 1
  m_Tiles:
  - first: {x: 0, y: -8, z: 0}
    second:
      serializedVersion: 2
      m_TileIndex: 134
      m_TileSpriteIndex: 132
      m_TileMatrixIndex: 0
      m_TileColorIndex: 0
      m_TileObjectToInstantiateIndex: 65535
      dummyAlignment: 0
      m_AllTileFlags: 1073741825
  - first: {x: 1, y: -8, z: 0}
    second:
      serializedVersion: 2
      m_TileIndex: 135
      m_TileSpriteIndex: 133
      m_TileMatrixIndex: 0
      m_TileColorIndex: 0
      m_TileObjectToInstantiateIndex: 65535
      dummyAlignment: 0
      m_AllTileFlags: 1073741825
  - first: {x: 2, y: -8, z: 0}
    second:
      serializedVersion: 2
      m_TileIndex: 136
      m_TileSpriteIndex: 134
      m_TileMatrixIndex: 0
      m_TileColorIndex: 0
      m_TileObjectToInstantiateIndex: 65535
      dummyAlignment: 0
      m_AllTileFlags: 1073741825
  - first: {x: 3, y: -8, z: 0}
    second:
      serializedVersion: 2
      m_TileIndex: 137
      m_TileSpriteIndex: 135
      m_TileMatrixIndex: 0
      m_TileColorIndex: 0
      m_TileObjectToInstantiateIndex: 65535
      dummyAlignment: 0
      m_AllTileFlags: 1073741825
  - first: {x: 4, y: -8, z: 0}
    second:
      serializedVersion: 2
      m_TileIndex: 138
      m_TileSpriteIndex: 136
      m_TileMatrixIndex: 0
      m_TileColorIndex: 0
      m_TileObjectToInstantiateIndex: 65535
      dummyAlignment: 0
      m_AllTileFlags: 1073741825
  - first: {x: 0, y: -7, z: 0}
    second:
      serializedVersion: 2
      m_TileIndex: 122
      m_TileSpriteIndex: 120
      m_TileMatrixIndex: 0
      m_TileColorIndex: 0
      m_TileObjectToInstantiateIndex: 65535
      dummyAlignment: 0
      m_AllTileFlags: 1073741825
  - first: {x: 1, y: -7, z: 0}
    second:
      serializedVersion: 2
      m_TileIndex: 123
      m_TileSpriteIndex: 121
      m_TileMatrixIndex: 0
      m_TileColorIndex: 0
      m_TileObjectToInstantiateIndex: 65535
      dummyAlignment: 0
      m_AllTileFlags: 1073741825
  - first: {x: 2, y: -7, z: 0}
    second:
      serializedVersion: 2
      m_TileIndex: 124
      m_TileSpriteIndex: 122
      m_TileMatrixIndex: 0
      m_TileColorIndex: 0
      m_TileObjectToInstantiateIndex: 65535
      dummyAlignment: 0
      m_AllTileFlags: 1073741825
  - first: {x: 3, y: -7, z: 0}
    second:
      serializedVersion: 2
      m_TileIndex: 125
      m_TileSpriteIndex: 123
      m_TileMatrixIndex: 0
      m_TileColorIndex: 0
      m_TileObjectToInstantiateIndex: 65535
      dummyAlignment: 0
      m_AllTileFlags: 1073741825
  - first: {x: 4, y: -7, z: 0}
    second:
      serializedVersion: 2
      m_TileIndex: 126
      m_TileSpriteIndex: 124
      m_TileMatrixIndex: 0
      m_TileColorIndex: 0
      m_TileObjectToInstantiateIndex: 65535
      dummyAlignment: 0
      m_AllTileFlags: 1073741825
  - first: {x: 5, y: -7, z: 0}
    second:
      serializedVersion: 2
      m_TileIndex: 127
      m_TileSpriteIndex: 125
      m_TileMatrixIndex: 0
      m_TileColorIndex: 0
      m_TileObjectToInstantiateIndex: 65535
      dummyAlignment: 0
      m_AllTileFlags: 1073741825
  - first: {x: 6, y: -7, z: 0}
    second:
      serializedVersion: 2
      m_TileIndex: 128
      m_TileSpriteIndex: 126
      m_TileMatrixIndex: 0
      m_TileColorIndex: 0
      m_TileObjectToInstantiateIndex: 65535
      dummyAlignment: 0
      m_AllTileFlags: 1073741825
  - first: {x: 7, y: -7, z: 0}
    second:
      serializedVersion: 2
      m_TileIndex: 129
      m_TileSpriteIndex: 127
      m_TileMatrixIndex: 0
      m_TileColorIndex: 0
      m_TileObjectToInstantiateIndex: 65535
      dummyAlignment: 0
      m_AllTileFlags: 1073741825
  - first: {x: 8, y: -7, z: 0}
    second:
      serializedVersion: 2
      m_TileIndex: 130
      m_TileSpriteIndex: 128
      m_TileMatrixIndex: 0
      m_TileColorIndex: 0
      m_TileObjectToInstantiateIndex: 65535
      dummyAlignment: 0
      m_AllTileFlags: 1073741825
  - first: {x: 9, y: -7, z: 0}
    second:
      serializedVersion: 2
      m_TileIndex: 131
      m_TileSpriteIndex: 129
      m_TileMatrixIndex: 0
      m_TileColorIndex: 0
      m_TileObjectToInstantiateIndex: 65535
      dummyAlignment: 0
      m_AllTileFlags: 1073741825
  - first: {x: 10, y: -7, z: 0}
    second:
      serializedVersion: 2
      m_TileIndex: 132
      m_TileSpriteIndex: 130
      m_TileMatrixIndex: 0
      m_TileColorIndex: 0
      m_TileObjectToInstantiateIndex: 65535
      dummyAlignment: 0
      m_AllTileFlags: 1073741825
  - first: {x: 11, y: -7, z: 0}
    second:
      serializedVersion: 2
      m_TileIndex: 133
      m_TileSpriteIndex: 131
      m_TileMatrixIndex: 0
      m_TileColorIndex: 0
      m_TileObjectToInstantiateIndex: 65535
      dummyAlignment: 0
      m_AllTileFlags: 1073741825
  - first: {x: 0, y: -6, z: 0}
    second:
      serializedVersion: 2
      m_TileIndex: 110
      m_TileSpriteIndex: 108
      m_TileMatrixIndex: 0
      m_TileColorIndex: 0
      m_TileObjectToInstantiateIndex: 65535
      dummyAlignment: 0
      m_AllTileFlags: 1073741825
  - first: {x: 1, y: -6, z: 0}
    second:
      serializedVersion: 2
      m_TileIndex: 111
      m_TileSpriteIndex: 109
      m_TileMatrixIndex: 0
      m_TileColorIndex: 0
      m_TileObjectToInstantiateIndex: 65535
      dummyAlignment: 0
      m_AllTileFlags: 1073741825
  - first: {x: 2, y: -6, z: 0}
    second:
      serializedVersion: 2
      m_TileIndex: 112
      m_TileSpriteIndex: 110
      m_TileMatrixIndex: 0
      m_TileColorIndex: 0
      m_TileObjectToInstantiateIndex: 65535
      dummyAlignment: 0
      m_AllTileFlags: 1073741825
  - first: {x: 3, y: -6, z: 0}
    second:
      serializedVersion: 2
      m_TileIndex: 113
      m_TileSpriteIndex: 111
      m_TileMatrixIndex: 0
      m_TileColorIndex: 0
      m_TileObjectToInstantiateIndex: 65535
      dummyAlignment: 0
      m_AllTileFlags: 1073741825
  - first: {x: 4, y: -6, z: 0}
    second:
      serializedVersion: 2
      m_TileIndex: 114
      m_TileSpriteIndex: 112
      m_TileMatrixIndex: 0
      m_TileColorIndex: 0
      m_TileObjectToInstantiateIndex: 65535
      dummyAlignment: 0
      m_AllTileFlags: 1073741825
  - first: {x: 5, y: -6, z: 0}
    second:
      serializedVersion: 2
      m_TileIndex: 115
      m_TileSpriteIndex: 113
      m_TileMatrixIndex: 0
      m_TileColorIndex: 0
      m_TileObjectToInstantiateIndex: 65535
      dummyAlignment: 0
      m_AllTileFlags: 1073741825
  - first: {x: 6, y: -6, z: 0}
    second:
      serializedVersion: 2
      m_TileIndex: 116
      m_TileSpriteIndex: 114
      m_TileMatrixIndex: 0
      m_TileColorIndex: 0
      m_TileObjectToInstantiateIndex: 65535
      dummyAlignment: 0
      m_AllTileFlags: 1073741825
  - first: {x: 7, y: -6, z: 0}
    second:
      serializedVersion: 2
      m_TileIndex: 117
      m_TileSpriteIndex: 115
      m_TileMatrixIndex: 0
      m_TileColorIndex: 0
      m_TileObjectToInstantiateIndex: 65535
      dummyAlignment: 0
      m_AllTileFlags: 1073741825
  - first: {x: 8, y: -6, z: 0}
    second:
      serializedVersion: 2
      m_TileIndex: 118
      m_TileSpriteIndex: 116
      m_TileMatrixIndex: 0
      m_TileColorIndex: 0
      m_TileObjectToInstantiateIndex: 65535
      dummyAlignment: 0
      m_AllTileFlags: 1073741825
  - first: {x: 9, y: -6, z: 0}
    second:
      serializedVersion: 2
      m_TileIndex: 119
      m_TileSpriteIndex: 117
      m_TileMatrixIndex: 0
      m_TileColorIndex: 0
      m_TileObjectToInstantiateIndex: 65535
      dummyAlignment: 0
      m_AllTileFlags: 1073741825
  - first: {x: 10, y: -6, z: 0}
    second:
      serializedVersion: 2
      m_TileIndex: 120
      m_TileSpriteIndex: 118
      m_TileMatrixIndex: 0
      m_TileColorIndex: 0
      m_TileObjectToInstantiateIndex: 65535
      dummyAlignment: 0
      m_AllTileFlags: 1073741825
  - first: {x: 11, y: -6, z: 0}
    second:
      serializedVersion: 2
      m_TileIndex: 121
      m_TileSpriteIndex: 119
      m_TileMatrixIndex: 0
      m_TileColorIndex: 0
      m_TileObjectToInstantiateIndex: 65535
      dummyAlignment: 0
      m_AllTileFlags: 1073741825
  - first: {x: 0, y: -5, z: 0}
    second:
      serializedVersion: 2
      m_TileIndex: 98
      m_TileSpriteIndex: 96
      m_TileMatrixIndex: 0
      m_TileColorIndex: 0
      m_TileObjectToInstantiateIndex: 65535
      dummyAlignment: 0
      m_AllTileFlags: 1073741825
  - first: {x: 1, y: -5, z: 0}
    second:
      serializedVersion: 2
      m_TileIndex: 99
      m_TileSpriteIndex: 97
      m_TileMatrixIndex: 0
      m_TileColorIndex: 0
      m_TileObjectToInstantiateIndex: 65535
      dummyAlignment: 0
      m_AllTileFlags: 1073741825
  - first: {x: 2, y: -5, z: 0}
    second:
      serializedVersion: 2
      m_TileIndex: 100
      m_TileSpriteIndex: 98
      m_TileMatrixIndex: 0
      m_TileColorIndex: 0
      m_TileObjectToInstantiateIndex: 65535
      dummyAlignment: 0
      m_AllTileFlags: 1073741825
  - first: {x: 3, y: -5, z: 0}
    second:
      serializedVersion: 2
      m_TileIndex: 101
      m_TileSpriteIndex: 99
      m_TileMatrixIndex: 0
      m_TileColorIndex: 0
      m_TileObjectToInstantiateIndex: 65535
      dummyAlignment: 0
      m_AllTileFlags: 1073741825
  - first: {x: 4, y: -5, z: 0}
    second:
      serializedVersion: 2
      m_TileIndex: 102
      m_TileSpriteIndex: 100
      m_TileMatrixIndex: 0
      m_TileColorIndex: 0
      m_TileObjectToInstantiateIndex: 65535
      dummyAlignment: 0
      m_AllTileFlags: 1073741825
  - first: {x: 5, y: -5, z: 0}
    second:
      serializedVersion: 2
      m_TileIndex: 103
      m_TileSpriteIndex: 101
      m_TileMatrixIndex: 0
      m_TileColorIndex: 0
      m_TileObjectToInstantiateIndex: 65535
      dummyAlignment: 0
      m_AllTileFlags: 1073741825
  - first: {x: 6, y: -5, z: 0}
    second:
      serializedVersion: 2
      m_TileIndex: 104
      m_TileSpriteIndex: 102
      m_TileMatrixIndex: 0
      m_TileColorIndex: 0
      m_TileObjectToInstantiateIndex: 65535
      dummyAlignment: 0
      m_AllTileFlags: 1073741825
  - first: {x: 7, y: -5, z: 0}
    second:
      serializedVersion: 2
      m_TileIndex: 105
      m_TileSpriteIndex: 103
      m_TileMatrixIndex: 0
      m_TileColorIndex: 0
      m_TileObjectToInstantiateIndex: 65535
      dummyAlignment: 0
      m_AllTileFlags: 1073741825
  - first: {x: 8, y: -5, z: 0}
    second:
      serializedVersion: 2
      m_TileIndex: 106
      m_TileSpriteIndex: 104
      m_TileMatrixIndex: 0
      m_TileColorIndex: 0
      m_TileObjectToInstantiateIndex: 65535
      dummyAlignment: 0
      m_AllTileFlags: 1073741825
  - first: {x: 9, y: -5, z: 0}
    second:
      serializedVersion: 2
      m_TileIndex: 107
      m_TileSpriteIndex: 105
      m_TileMatrixIndex: 0
      m_TileColorIndex: 0
      m_TileObjectToInstantiateIndex: 65535
      dummyAlignment: 0
      m_AllTileFlags: 1073741825
  - first: {x: 10, y: -5, z: 0}
    second:
      serializedVersion: 2
      m_TileIndex: 108
      m_TileSpriteIndex: 106
      m_TileMatrixIndex: 0
      m_TileColorIndex: 0
      m_TileObjectToInstantiateIndex: 65535
      dummyAlignment: 0
      m_AllTileFlags: 1073741825
  - first: {x: 11, y: -5, z: 0}
    second:
      serializedVersion: 2
      m_TileIndex: 109
      m_TileSpriteIndex: 107
      m_TileMatrixIndex: 0
      m_TileColorIndex: 0
      m_TileObjectToInstantiateIndex: 65535
      dummyAlignment: 0
      m_AllTileFlags: 1073741825
  - first: {x: 0, y: -4, z: 0}
    second:
      serializedVersion: 2
      m_TileIndex: 86
      m_TileSpriteIndex: 84
      m_TileMatrixIndex: 0
      m_TileColorIndex: 0
      m_TileObjectToInstantiateIndex: 65535
      dummyAlignment: 0
      m_AllTileFlags: 1073741825
  - first: {x: 1, y: -4, z: 0}
    second:
      serializedVersion: 2
      m_TileIndex: 87
      m_TileSpriteIndex: 85
      m_TileMatrixIndex: 0
      m_TileColorIndex: 0
      m_TileObjectToInstantiateIndex: 65535
      dummyAlignment: 0
      m_AllTileFlags: 1073741825
  - first: {x: 2, y: -4, z: 0}
    second:
      serializedVersion: 2
      m_TileIndex: 88
      m_TileSpriteIndex: 86
      m_TileMatrixIndex: 0
      m_TileColorIndex: 0
      m_TileObjectToInstantiateIndex: 65535
      dummyAlignment: 0
      m_AllTileFlags: 1073741825
  - first: {x: 3, y: -4, z: 0}
    second:
      serializedVersion: 2
      m_TileIndex: 89
      m_TileSpriteIndex: 87
      m_TileMatrixIndex: 0
      m_TileColorIndex: 0
      m_TileObjectToInstantiateIndex: 65535
      dummyAlignment: 0
      m_AllTileFlags: 1073741825
  - first: {x: 4, y: -4, z: 0}
    second:
      serializedVersion: 2
      m_TileIndex: 90
      m_TileSpriteIndex: 88
      m_TileMatrixIndex: 0
      m_TileColorIndex: 0
      m_TileObjectToInstantiateIndex: 65535
      dummyAlignment: 0
      m_AllTileFlags: 1073741825
  - first: {x: 5, y: -4, z: 0}
    second:
      serializedVersion: 2
      m_TileIndex: 91
      m_TileSpriteIndex: 89
      m_TileMatrixIndex: 0
      m_TileColorIndex: 0
      m_TileObjectToInstantiateIndex: 65535
      dummyAlignment: 0
      m_AllTileFlags: 1073741825
  - first: {x: 6, y: -4, z: 0}
    second:
      serializedVersion: 2
      m_TileIndex: 92
      m_TileSpriteIndex: 90
      m_TileMatrixIndex: 0
      m_TileColorIndex: 0
      m_TileObjectToInstantiateIndex: 65535
      dummyAlignment: 0
      m_AllTileFlags: 1073741825
  - first: {x: 7, y: -4, z: 0}
    second:
      serializedVersion: 2
      m_TileIndex: 93
      m_TileSpriteIndex: 91
      m_TileMatrixIndex: 0
      m_TileColorIndex: 0
      m_TileObjectToInstantiateIndex: 65535
      dummyAlignment: 0
      m_AllTileFlags: 1073741825
  - first: {x: 8, y: -4, z: 0}
    second:
      serializedVersion: 2
      m_TileIndex: 94
      m_TileSpriteIndex: 92
      m_TileMatrixIndex: 0
      m_TileColorIndex: 0
      m_TileObjectToInstantiateIndex: 65535
      dummyAlignment: 0
      m_AllTileFlags: 1073741825
  - first: {x: 9, y: -4, z: 0}
    second:
      serializedVersion: 2
      m_TileIndex: 95
      m_TileSpriteIndex: 93
      m_TileMatrixIndex: 0
      m_TileColorIndex: 0
      m_TileObjectToInstantiateIndex: 65535
      dummyAlignment: 0
      m_AllTileFlags: 1073741825
  - first: {x: 10, y: -4, z: 0}
    second:
      serializedVersion: 2
      m_TileIndex: 96
      m_TileSpriteIndex: 94
      m_TileMatrixIndex: 0
      m_TileColorIndex: 0
      m_TileObjectToInstantiateIndex: 65535
      dummyAlignment: 0
      m_AllTileFlags: 1073741825
  - first: {x: 11, y: -4, z: 0}
    second:
      serializedVersion: 2
      m_TileIndex: 97
      m_TileSpriteIndex: 95
      m_TileMatrixIndex: 0
      m_TileColorIndex: 0
      m_TileObjectToInstantiateIndex: 65535
      dummyAlignment: 0
      m_AllTileFlags: 1073741825
  - first: {x: 0, y: -3, z: 0}
    second:
      serializedVersion: 2
      m_TileIndex: 74
      m_TileSpriteIndex: 72
      m_TileMatrixIndex: 0
      m_TileColorIndex: 0
      m_TileObjectToInstantiateIndex: 65535
      dummyAlignment: 0
      m_AllTileFlags: 1073741825
  - first: {x: 1, y: -3, z: 0}
    second:
      serializedVersion: 2
      m_TileIndex: 75
      m_TileSpriteIndex: 73
      m_TileMatrixIndex: 0
      m_TileColorIndex: 0
      m_TileObjectToInstantiateIndex: 65535
      dummyAlignment: 0
      m_AllTileFlags: 1073741825
  - first: {x: 2, y: -3, z: 0}
    second:
      serializedVersion: 2
      m_TileIndex: 76
      m_TileSpriteIndex: 74
      m_TileMatrixIndex: 0
      m_TileColorIndex: 0
      m_TileObjectToInstantiateIndex: 65535
      dummyAlignment: 0
      m_AllTileFlags: 1073741825
  - first: {x: 3, y: -3, z: 0}
    second:
      serializedVersion: 2
      m_TileIndex: 77
      m_TileSpriteIndex: 75
      m_TileMatrixIndex: 0
      m_TileColorIndex: 0
      m_TileObjectToInstantiateIndex: 65535
      dummyAlignment: 0
      m_AllTileFlags: 1073741825
  - first: {x: 4, y: -3, z: 0}
    second:
      serializedVersion: 2
      m_TileIndex: 78
      m_TileSpriteIndex: 76
      m_TileMatrixIndex: 0
      m_TileColorIndex: 0
      m_TileObjectToInstantiateIndex: 65535
      dummyAlignment: 0
      m_AllTileFlags: 1073741825
  - first: {x: 5, y: -3, z: 0}
    second:
      serializedVersion: 2
      m_TileIndex: 79
      m_TileSpriteIndex: 77
      m_TileMatrixIndex: 0
      m_TileColorIndex: 0
      m_TileObjectToInstantiateIndex: 65535
      dummyAlignment: 0
      m_AllTileFlags: 1073741825
  - first: {x: 6, y: -3, z: 0}
    second:
      serializedVersion: 2
      m_TileIndex: 80
      m_TileSpriteIndex: 78
      m_TileMatrixIndex: 0
      m_TileColorIndex: 0
      m_TileObjectToInstantiateIndex: 65535
      dummyAlignment: 0
      m_AllTileFlags: 1073741825
  - first: {x: 7, y: -3, z: 0}
    second:
      serializedVersion: 2
      m_TileIndex: 81
      m_TileSpriteIndex: 79
      m_TileMatrixIndex: 0
      m_TileColorIndex: 0
      m_TileObjectToInstantiateIndex: 65535
      dummyAlignment: 0
      m_AllTileFlags: 1073741825
  - first: {x: 8, y: -3, z: 0}
    second:
      serializedVersion: 2
      m_TileIndex: 82
      m_TileSpriteIndex: 80
      m_TileMatrixIndex: 0
      m_TileColorIndex: 0
      m_TileObjectToInstantiateIndex: 65535
      dummyAlignment: 0
      m_AllTileFlags: 1073741825
  - first: {x: 9, y: -3, z: 0}
    second:
      serializedVersion: 2
      m_TileIndex: 83
      m_TileSpriteIndex: 81
      m_TileMatrixIndex: 0
      m_TileColorIndex: 0
      m_TileObjectToInstantiateIndex: 65535
      dummyAlignment: 0
      m_AllTileFlags: 1073741825
  - first: {x: 10, y: -3, z: 0}
    second:
      serializedVersion: 2
      m_TileIndex: 84
      m_TileSpriteIndex: 82
      m_TileMatrixIndex: 0
      m_TileColorIndex: 0
      m_TileObjectToInstantiateIndex: 65535
      dummyAlignment: 0
      m_AllTileFlags: 1073741825
  - first: {x: 11, y: -3, z: 0}
    second:
      serializedVersion: 2
      m_TileIndex: 85
      m_TileSpriteIndex: 83
      m_TileMatrixIndex: 0
      m_TileColorIndex: 0
      m_TileObjectToInstantiateIndex: 65535
      dummyAlignment: 0
      m_AllTileFlags: 1073741825
  - first: {x: 0, y: -2, z: 0}
    second:
      serializedVersion: 2
      m_TileIndex: 62
      m_TileSpriteIndex: 60
      m_TileMatrixIndex: 0
      m_TileColorIndex: 0
      m_TileObjectToInstantiateIndex: 65535
      dummyAlignment: 0
      m_AllTileFlags: 1073741825
  - first: {x: 1, y: -2, z: 0}
    second:
      serializedVersion: 2
      m_TileIndex: 63
      m_TileSpriteIndex: 61
      m_TileMatrixIndex: 0
      m_TileColorIndex: 0
      m_TileObjectToInstantiateIndex: 65535
      dummyAlignment: 0
      m_AllTileFlags: 1073741825
  - first: {x: 2, y: -2, z: 0}
    second:
      serializedVersion: 2
      m_TileIndex: 64
      m_TileSpriteIndex: 62
      m_TileMatrixIndex: 0
      m_TileColorIndex: 0
      m_TileObjectToInstantiateIndex: 65535
      dummyAlignment: 0
      m_AllTileFlags: 1073741825
  - first: {x: 3, y: -2, z: 0}
    second:
      serializedVersion: 2
      m_TileIndex: 65
      m_TileSpriteIndex: 63
      m_TileMatrixIndex: 0
      m_TileColorIndex: 0
      m_TileObjectToInstantiateIndex: 65535
      dummyAlignment: 0
      m_AllTileFlags: 1073741825
  - first: {x: 4, y: -2, z: 0}
    second:
      serializedVersion: 2
      m_TileIndex: 66
      m_TileSpriteIndex: 64
      m_TileMatrixIndex: 0
      m_TileColorIndex: 0
      m_TileObjectToInstantiateIndex: 65535
      dummyAlignment: 0
      m_AllTileFlags: 1073741825
  - first: {x: 5, y: -2, z: 0}
    second:
      serializedVersion: 2
      m_TileIndex: 67
      m_TileSpriteIndex: 65
      m_TileMatrixIndex: 0
      m_TileColorIndex: 0
      m_TileObjectToInstantiateIndex: 65535
      dummyAlignment: 0
      m_AllTileFlags: 1073741825
  - first: {x: 6, y: -2, z: 0}
    second:
      serializedVersion: 2
      m_TileIndex: 68
      m_TileSpriteIndex: 66
      m_TileMatrixIndex: 0
      m_TileColorIndex: 0
      m_TileObjectToInstantiateIndex: 65535
      dummyAlignment: 0
      m_AllTileFlags: 1073741825
  - first: {x: 7, y: -2, z: 0}
    second:
      serializedVersion: 2
      m_TileIndex: 69
      m_TileSpriteIndex: 67
      m_TileMatrixIndex: 0
      m_TileColorIndex: 0
      m_TileObjectToInstantiateIndex: 65535
      dummyAlignment: 0
      m_AllTileFlags: 1073741825
  - first: {x: 8, y: -2, z: 0}
    second:
      serializedVersion: 2
      m_TileIndex: 70
      m_TileSpriteIndex: 68
      m_TileMatrixIndex: 0
      m_TileColorIndex: 0
      m_TileObjectToInstantiateIndex: 65535
      dummyAlignment: 0
      m_AllTileFlags: 1073741825
  - first: {x: 9, y: -2, z: 0}
    second:
      serializedVersion: 2
      m_TileIndex: 71
      m_TileSpriteIndex: 69
      m_TileMatrixIndex: 0
      m_TileColorIndex: 0
      m_TileObjectToInstantiateIndex: 65535
      dummyAlignment: 0
      m_AllTileFlags: 1073741825
  - first: {x: 10, y: -2, z: 0}
    second:
      serializedVersion: 2
      m_TileIndex: 72
      m_TileSpriteIndex: 70
      m_TileMatrixIndex: 0
      m_TileColorIndex: 0
      m_TileObjectToInstantiateIndex: 65535
      dummyAlignment: 0
      m_AllTileFlags: 1073741825
  - first: {x: 11, y: -2, z: 0}
    second:
      serializedVersion: 2
      m_TileIndex: 73
      m_TileSpriteIndex: 71
      m_TileMatrixIndex: 0
      m_TileColorIndex: 0
      m_TileObjectToInstantiateIndex: 65535
      dummyAlignment: 0
      m_AllTileFlags: 1073741825
  - first: {x: 0, y: -1, z: 0}
    second:
      serializedVersion: 2
      m_TileIndex: 50
      m_TileSpriteIndex: 48
      m_TileMatrixIndex: 0
      m_TileColorIndex: 0
      m_TileObjectToInstantiateIndex: 65535
      dummyAlignment: 0
      m_AllTileFlags: 1073741825
  - first: {x: 1, y: -1, z: 0}
    second:
      serializedVersion: 2
      m_TileIndex: 51
      m_TileSpriteIndex: 49
      m_TileMatrixIndex: 0
      m_TileColorIndex: 0
      m_TileObjectToInstantiateIndex: 65535
      dummyAlignment: 0
      m_AllTileFlags: 1073741825
  - first: {x: 2, y: -1, z: 0}
    second:
      serializedVersion: 2
      m_TileIndex: 52
      m_TileSpriteIndex: 50
      m_TileMatrixIndex: 0
      m_TileColorIndex: 0
      m_TileObjectToInstantiateIndex: 65535
      dummyAlignment: 0
      m_AllTileFlags: 1073741825
  - first: {x: 3, y: -1, z: 0}
    second:
      serializedVersion: 2
      m_TileIndex: 53
      m_TileSpriteIndex: 51
      m_TileMatrixIndex: 0
      m_TileColorIndex: 0
      m_TileObjectToInstantiateIndex: 65535
      dummyAlignment: 0
      m_AllTileFlags: 1073741825
  - first: {x: 4, y: -1, z: 0}
    second:
      serializedVersion: 2
      m_TileIndex: 54
      m_TileSpriteIndex: 52
      m_TileMatrixIndex: 0
      m_TileColorIndex: 0
      m_TileObjectToInstantiateIndex: 65535
      dummyAlignment: 0
      m_AllTileFlags: 1073741825
  - first: {x: 5, y: -1, z: 0}
    second:
      serializedVersion: 2
      m_TileIndex: 55
      m_TileSpriteIndex: 53
      m_TileMatrixIndex: 0
      m_TileColorIndex: 0
      m_TileObjectToInstantiateIndex: 65535
      dummyAlignment: 0
      m_AllTileFlags: 1073741825
  - first: {x: 6, y: -1, z: 0}
    second:
      serializedVersion: 2
      m_TileIndex: 56
      m_TileSpriteIndex: 54
      m_TileMatrixIndex: 0
      m_TileColorIndex: 0
      m_TileObjectToInstantiateIndex: 65535
      dummyAlignment: 0
      m_AllTileFlags: 1073741825
  - first: {x: 7, y: -1, z: 0}
    second:
      serializedVersion: 2
      m_TileIndex: 57
      m_TileSpriteIndex: 55
      m_TileMatrixIndex: 0
      m_TileColorIndex: 0
      m_TileObjectToInstantiateIndex: 65535
      dummyAlignment: 0
      m_AllTileFlags: 1073741825
  - first: {x: 8, y: -1, z: 0}
    second:
      serializedVersion: 2
      m_TileIndex: 58
      m_TileSpriteIndex: 56
      m_TileMatrixIndex: 0
      m_TileColorIndex: 0
      m_TileObjectToInstantiateIndex: 65535
      dummyAlignment: 0
      m_AllTileFlags: 1073741825
  - first: {x: 9, y: -1, z: 0}
    second:
      serializedVersion: 2
      m_TileIndex: 59
      m_TileSpriteIndex: 57
      m_TileMatrixIndex: 0
      m_TileColorIndex: 0
      m_TileObjectToInstantiateIndex: 65535
      dummyAlignment: 0
      m_AllTileFlags: 1073741825
  - first: {x: 10, y: -1, z: 0}
    second:
      serializedVersion: 2
      m_TileIndex: 60
      m_TileSpriteIndex: 58
      m_TileMatrixIndex: 0
      m_TileColorIndex: 0
      m_TileObjectToInstantiateIndex: 65535
      dummyAlignment: 0
      m_AllTileFlags: 1073741825
  - first: {x: 11, y: -1, z: 0}
    second:
      serializedVersion: 2
      m_TileIndex: 61
      m_TileSpriteIndex: 59
      m_TileMatrixIndex: 0
      m_TileColorIndex: 0
      m_TileObjectToInstantiateIndex: 65535
      dummyAlignment: 0
      m_AllTileFlags: 1073741825
  - first: {x: 0, y: 0, z: 0}
    second:
      serializedVersion: 2
      m_TileIndex: 38
      m_TileSpriteIndex: 36
      m_TileMatrixIndex: 0
      m_TileColorIndex: 0
      m_TileObjectToInstantiateIndex: 65535
      dummyAlignment: 0
      m_AllTileFlags: 1073741825
  - first: {x: 1, y: 0, z: 0}
    second:
      serializedVersion: 2
      m_TileIndex: 39
      m_TileSpriteIndex: 37
      m_TileMatrixIndex: 0
      m_TileColorIndex: 0
      m_TileObjectToInstantiateIndex: 65535
      dummyAlignment: 0
      m_AllTileFlags: 1073741825
  - first: {x: 2, y: 0, z: 0}
    second:
      serializedVersion: 2
      m_TileIndex: 40
      m_TileSpriteIndex: 38
      m_TileMatrixIndex: 0
      m_TileColorIndex: 0
      m_TileObjectToInstantiateIndex: 65535
      dummyAlignment: 0
      m_AllTileFlags: 1073741825
  - first: {x: 3, y: 0, z: 0}
    second:
      serializedVersion: 2
      m_TileIndex: 41
      m_TileSpriteIndex: 39
      m_TileMatrixIndex: 0
      m_TileColorIndex: 0
      m_TileObjectToInstantiateIndex: 65535
      dummyAlignment: 0
      m_AllTileFlags: 1073741825
  - first: {x: 4, y: 0, z: 0}
    second:
      serializedVersion: 2
      m_TileIndex: 42
      m_TileSpriteIndex: 40
      m_TileMatrixIndex: 0
      m_TileColorIndex: 0
      m_TileObjectToInstantiateIndex: 65535
      dummyAlignment: 0
      m_AllTileFlags: 1073741825
  - first: {x: 5, y: 0, z: 0}
    second:
      serializedVersion: 2
      m_TileIndex: 43
      m_TileSpriteIndex: 41
      m_TileMatrixIndex: 0
      m_TileColorIndex: 0
      m_TileObjectToInstantiateIndex: 65535
      dummyAlignment: 0
      m_AllTileFlags: 1073741825
  - first: {x: 6, y: 0, z: 0}
    second:
      serializedVersion: 2
      m_TileIndex: 44
      m_TileSpriteIndex: 42
      m_TileMatrixIndex: 0
      m_TileColorIndex: 0
      m_TileObjectToInstantiateIndex: 65535
      dummyAlignment: 0
      m_AllTileFlags: 1073741825
  - first: {x: 7, y: 0, z: 0}
    second:
      serializedVersion: 2
      m_TileIndex: 45
      m_TileSpriteIndex: 43
      m_TileMatrixIndex: 0
      m_TileColorIndex: 0
      m_TileObjectToInstantiateIndex: 65535
      dummyAlignment: 0
      m_AllTileFlags: 1073741825
  - first: {x: 8, y: 0, z: 0}
    second:
      serializedVersion: 2
      m_TileIndex: 46
      m_TileSpriteIndex: 44
      m_TileMatrixIndex: 0
      m_TileColorIndex: 0
      m_TileObjectToInstantiateIndex: 65535
      dummyAlignment: 0
      m_AllTileFlags: 1073741825
  - first: {x: 9, y: 0, z: 0}
    second:
      serializedVersion: 2
      m_TileIndex: 47
      m_TileSpriteIndex: 45
      m_TileMatrixIndex: 0
      m_TileColorIndex: 0
      m_TileObjectToInstantiateIndex: 65535
      dummyAlignment: 0
      m_AllTileFlags: 1073741825
  - first: {x: 10, y: 0, z: 0}
    second:
      serializedVersion: 2
      m_TileIndex: 48
      m_TileSpriteIndex: 46
      m_TileMatrixIndex: 0
      m_TileColorIndex: 0
      m_TileObjectToInstantiateIndex: 65535
      dummyAlignment: 0
      m_AllTileFlags: 1073741825
  - first: {x: 11, y: 0, z: 0}
    second:
      serializedVersion: 2
      m_TileIndex: 49
      m_TileSpriteIndex: 47
      m_TileMatrixIndex: 0
      m_TileColorIndex: 0
      m_TileObjectToInstantiateIndex: 65535
      dummyAlignment: 0
      m_AllTileFlags: 1073741825
  - first: {x: -2, y: 1, z: 0}
    second:
      serializedVersion: 2
      m_TileIndex: 0
      m_TileSpriteIndex: 0
      m_TileMatrixIndex: 0
      m_TileColorIndex: 0
      m_TileObjectToInstantiateIndex: 65535
      dummyAlignment: 0
      m_AllTileFlags: 1073741825
  - first: {x: -1, y: 1, z: 0}
    second:
      serializedVersion: 2
      m_TileIndex: 1
      m_TileSpriteIndex: 1
      m_TileMatrixIndex: 0
      m_TileColorIndex: 0
      m_TileObjectToInstantiateIndex: 65535
      dummyAlignment: 0
      m_AllTileFlags: 1073741825
  - first: {x: 0, y: 1, z: 0}
    second:
      serializedVersion: 2
      m_TileIndex: 26
      m_TileSpriteIndex: 24
      m_TileMatrixIndex: 0
      m_TileColorIndex: 0
      m_TileObjectToInstantiateIndex: 65535
      dummyAlignment: 0
      m_AllTileFlags: 1073741825
  - first: {x: 1, y: 1, z: 0}
    second:
      serializedVersion: 2
      m_TileIndex: 27
      m_TileSpriteIndex: 25
      m_TileMatrixIndex: 0
      m_TileColorIndex: 0
      m_TileObjectToInstantiateIndex: 65535
      dummyAlignment: 0
      m_AllTileFlags: 1073741825
  - first: {x: 2, y: 1, z: 0}
    second:
      serializedVersion: 2
      m_TileIndex: 28
      m_TileSpriteIndex: 26
      m_TileMatrixIndex: 0
      m_TileColorIndex: 0
      m_TileObjectToInstantiateIndex: 65535
      dummyAlignment: 0
      m_AllTileFlags: 1073741825
  - first: {x: 3, y: 1, z: 0}
    second:
      serializedVersion: 2
      m_TileIndex: 29
      m_TileSpriteIndex: 27
      m_TileMatrixIndex: 0
      m_TileColorIndex: 0
      m_TileObjectToInstantiateIndex: 65535
      dummyAlignment: 0
      m_AllTileFlags: 1073741825
  - first: {x: 4, y: 1, z: 0}
    second:
      serializedVersion: 2
      m_TileIndex: 30
      m_TileSpriteIndex: 28
      m_TileMatrixIndex: 0
      m_TileColorIndex: 0
      m_TileObjectToInstantiateIndex: 65535
      dummyAlignment: 0
      m_AllTileFlags: 1073741825
  - first: {x: 5, y: 1, z: 0}
    second:
      serializedVersion: 2
      m_TileIndex: 31
      m_TileSpriteIndex: 29
      m_TileMatrixIndex: 0
      m_TileColorIndex: 0
      m_TileObjectToInstantiateIndex: 65535
      dummyAlignment: 0
      m_AllTileFlags: 1073741825
  - first: {x: 6, y: 1, z: 0}
    second:
      serializedVersion: 2
      m_TileIndex: 32
      m_TileSpriteIndex: 30
      m_TileMatrixIndex: 0
      m_TileColorIndex: 0
      m_TileObjectToInstantiateIndex: 65535
      dummyAlignment: 0
      m_AllTileFlags: 1073741825
  - first: {x: 7, y: 1, z: 0}
    second:
      serializedVersion: 2
      m_TileIndex: 33
      m_TileSpriteIndex: 31
      m_TileMatrixIndex: 0
      m_TileColorIndex: 0
      m_TileObjectToInstantiateIndex: 65535
      dummyAlignment: 0
      m_AllTileFlags: 1073741825
  - first: {x: 8, y: 1, z: 0}
    second:
      serializedVersion: 2
      m_TileIndex: 34
      m_TileSpriteIndex: 32
      m_TileMatrixIndex: 0
      m_TileColorIndex: 0
      m_TileObjectToInstantiateIndex: 65535
      dummyAlignment: 0
      m_AllTileFlags: 1073741825
  - first: {x: 9, y: 1, z: 0}
    second:
      serializedVersion: 2
      m_TileIndex: 35
      m_TileSpriteIndex: 33
      m_TileMatrixIndex: 0
      m_TileColorIndex: 0
      m_TileObjectToInstantiateIndex: 65535
      dummyAlignment: 0
      m_AllTileFlags: 1073741825
  - first: {x: 10, y: 1, z: 0}
    second:
      serializedVersion: 2
      m_TileIndex: 36
      m_TileSpriteIndex: 34
      m_TileMatrixIndex: 0
      m_TileColorIndex: 0
      m_TileObjectToInstantiateIndex: 65535
      dummyAlignment: 0
      m_AllTileFlags: 1073741825
  - first: {x: 11, y: 1, z: 0}
    second:
      serializedVersion: 2
      m_TileIndex: 37
      m_TileSpriteIndex: 35
      m_TileMatrixIndex: 0
      m_TileColorIndex: 0
      m_TileObjectToInstantiateIndex: 65535
      dummyAlignment: 0
      m_AllTileFlags: 1073741825
  - first: {x: 0, y: 2, z: 0}
    second:
      serializedVersion: 2
      m_TileIndex: 14
      m_TileSpriteIndex: 1
      m_TileMatrixIndex: 0
      m_TileColorIndex: 0
      m_TileObjectToInstantiateIndex: 65535
      dummyAlignment: 0
      m_AllTileFlags: 1073741825
  - first: {x: 1, y: 2, z: 0}
    second:
      serializedVersion: 2
      m_TileIndex: 15
      m_TileSpriteIndex: 13
      m_TileMatrixIndex: 0
      m_TileColorIndex: 0
      m_TileObjectToInstantiateIndex: 65535
      dummyAlignment: 0
      m_AllTileFlags: 1073741825
  - first: {x: 2, y: 2, z: 0}
    second:
      serializedVersion: 2
      m_TileIndex: 16
      m_TileSpriteIndex: 14
      m_TileMatrixIndex: 0
      m_TileColorIndex: 0
      m_TileObjectToInstantiateIndex: 65535
      dummyAlignment: 0
      m_AllTileFlags: 1073741825
  - first: {x: 3, y: 2, z: 0}
    second:
      serializedVersion: 2
      m_TileIndex: 17
      m_TileSpriteIndex: 15
      m_TileMatrixIndex: 0
      m_TileColorIndex: 0
      m_TileObjectToInstantiateIndex: 65535
      dummyAlignment: 0
      m_AllTileFlags: 1073741825
  - first: {x: 4, y: 2, z: 0}
    second:
      serializedVersion: 2
      m_TileIndex: 18
      m_TileSpriteIndex: 16
      m_TileMatrixIndex: 0
      m_TileColorIndex: 0
      m_TileObjectToInstantiateIndex: 65535
      dummyAlignment: 0
      m_AllTileFlags: 1073741825
  - first: {x: 5, y: 2, z: 0}
    second:
      serializedVersion: 2
      m_TileIndex: 19
      m_TileSpriteIndex: 17
      m_TileMatrixIndex: 0
      m_TileColorIndex: 0
      m_TileObjectToInstantiateIndex: 65535
      dummyAlignment: 0
      m_AllTileFlags: 1073741825
  - first: {x: 6, y: 2, z: 0}
    second:
      serializedVersion: 2
      m_TileIndex: 20
      m_TileSpriteIndex: 18
      m_TileMatrixIndex: 0
      m_TileColorIndex: 0
      m_TileObjectToInstantiateIndex: 65535
      dummyAlignment: 0
      m_AllTileFlags: 1073741825
  - first: {x: 7, y: 2, z: 0}
    second:
      serializedVersion: 2
      m_TileIndex: 21
      m_TileSpriteIndex: 19
      m_TileMatrixIndex: 0
      m_TileColorIndex: 0
      m_TileObjectToInstantiateIndex: 65535
      dummyAlignment: 0
      m_AllTileFlags: 1073741825
  - first: {x: 8, y: 2, z: 0}
    second:
      serializedVersion: 2
      m_TileIndex: 22
      m_TileSpriteIndex: 20
      m_TileMatrixIndex: 0
      m_TileColorIndex: 0
      m_TileObjectToInstantiateIndex: 65535
      dummyAlignment: 0
      m_AllTileFlags: 1073741825
  - first: {x: 9, y: 2, z: 0}
    second:
      serializedVersion: 2
      m_TileIndex: 23
      m_TileSpriteIndex: 21
      m_TileMatrixIndex: 0
      m_TileColorIndex: 0
      m_TileObjectToInstantiateIndex: 65535
      dummyAlignment: 0
      m_AllTileFlags: 1073741825
  - first: {x: 10, y: 2, z: 0}
    second:
      serializedVersion: 2
      m_TileIndex: 24
      m_TileSpriteIndex: 22
      m_TileMatrixIndex: 0
      m_TileColorIndex: 0
      m_TileObjectToInstantiateIndex: 65535
      dummyAlignment: 0
      m_AllTileFlags: 1073741825
  - first: {x: 11, y: 2, z: 0}
    second:
      serializedVersion: 2
      m_TileIndex: 25
      m_TileSpriteIndex: 23
      m_TileMatrixIndex: 0
      m_TileColorIndex: 0
      m_TileObjectToInstantiateIndex: 65535
      dummyAlignment: 0
      m_AllTileFlags: 1073741825
  - first: {x: 0, y: 3, z: 0}
    second:
      serializedVersion: 2
      m_TileIndex: 2
      m_TileSpriteIndex: 0
      m_TileMatrixIndex: 0
      m_TileColorIndex: 0
      m_TileObjectToInstantiateIndex: 65535
      dummyAlignment: 0
      m_AllTileFlags: 1073741825
  - first: {x: 1, y: 3, z: 0}
    second:
      serializedVersion: 2
      m_TileIndex: 3
      m_TileSpriteIndex: 2
      m_TileMatrixIndex: 0
      m_TileColorIndex: 0
      m_TileObjectToInstantiateIndex: 65535
      dummyAlignment: 0
      m_AllTileFlags: 1073741825
  - first: {x: 2, y: 3, z: 0}
    second:
      serializedVersion: 2
      m_TileIndex: 4
      m_TileSpriteIndex: 3
      m_TileMatrixIndex: 0
      m_TileColorIndex: 0
      m_TileObjectToInstantiateIndex: 65535
      dummyAlignment: 0
      m_AllTileFlags: 1073741825
  - first: {x: 3, y: 3, z: 0}
    second:
      serializedVersion: 2
      m_TileIndex: 5
      m_TileSpriteIndex: 4
      m_TileMatrixIndex: 0
      m_TileColorIndex: 0
      m_TileObjectToInstantiateIndex: 65535
      dummyAlignment: 0
      m_AllTileFlags: 1073741825
  - first: {x: 4, y: 3, z: 0}
    second:
      serializedVersion: 2
      m_TileIndex: 6
      m_TileSpriteIndex: 5
      m_TileMatrixIndex: 0
      m_TileColorIndex: 0
      m_TileObjectToInstantiateIndex: 65535
      dummyAlignment: 0
      m_AllTileFlags: 1073741825
  - first: {x: 5, y: 3, z: 0}
    second:
      serializedVersion: 2
      m_TileIndex: 7
      m_TileSpriteIndex: 6
      m_TileMatrixIndex: 0
      m_TileColorIndex: 0
      m_TileObjectToInstantiateIndex: 65535
      dummyAlignment: 0
      m_AllTileFlags: 1073741825
  - first: {x: 6, y: 3, z: 0}
    second:
      serializedVersion: 2
      m_TileIndex: 8
      m_TileSpriteIndex: 7
      m_TileMatrixIndex: 0
      m_TileColorIndex: 0
      m_TileObjectToInstantiateIndex: 65535
      dummyAlignment: 0
      m_AllTileFlags: 1073741825
  - first: {x: 7, y: 3, z: 0}
    second:
      serializedVersion: 2
      m_TileIndex: 9
      m_TileSpriteIndex: 8
      m_TileMatrixIndex: 0
      m_TileColorIndex: 0
      m_TileObjectToInstantiateIndex: 65535
      dummyAlignment: 0
      m_AllTileFlags: 1073741825
  - first: {x: 8, y: 3, z: 0}
    second:
      serializedVersion: 2
      m_TileIndex: 10
      m_TileSpriteIndex: 9
      m_TileMatrixIndex: 0
      m_TileColorIndex: 0
      m_TileObjectToInstantiateIndex: 65535
      dummyAlignment: 0
      m_AllTileFlags: 1073741825
  - first: {x: 9, y: 3, z: 0}
    second:
      serializedVersion: 2
      m_TileIndex: 11
      m_TileSpriteIndex: 10
      m_TileMatrixIndex: 0
      m_TileColorIndex: 0
      m_TileObjectToInstantiateIndex: 65535
      dummyAlignment: 0
      m_AllTileFlags: 1073741825
  - first: {x: 10, y: 3, z: 0}
    second:
      serializedVersion: 2
      m_TileIndex: 12
      m_TileSpriteIndex: 11
      m_TileMatrixIndex: 0
      m_TileColorIndex: 0
      m_TileObjectToInstantiateIndex: 65535
      dummyAlignment: 0
      m_AllTileFlags: 1073741825
  - first: {x: 11, y: 3, z: 0}
    second:
      serializedVersion: 2
      m_TileIndex: 13
      m_TileSpriteIndex: 12
      m_TileMatrixIndex: 0
      m_TileColorIndex: 0
      m_TileObjectToInstantiateIndex: 65535
      dummyAlignment: 0
      m_AllTileFlags: 1073741825
  m_AnimatedTiles: {}
  m_TileAssetArray:
  - m_RefCount: 1
    m_Data: {fileID: 0}
  - m_RefCount: 1
    m_Data: {fileID: 0}
  - m_RefCount: 1
    m_Data: {fileID: 11400000, guid: 807999d609440e9408b2c40deb5da638, type: 2}
  - m_RefCount: 1
    m_Data: {fileID: 11400000, guid: b766a1f4a81f80847b595d3fa0212c95, type: 2}
  - m_RefCount: 1
    m_Data: {fileID: 11400000, guid: 79c203cc485d31e468743a2b5cf0ce85, type: 2}
  - m_RefCount: 1
    m_Data: {fileID: 11400000, guid: 7931fa4b0055a5d4e9f7f885b8acfb0d, type: 2}
  - m_RefCount: 1
    m_Data: {fileID: 11400000, guid: 0531c66a68fc1364980ced7ce13aece9, type: 2}
  - m_RefCount: 1
    m_Data: {fileID: 11400000, guid: d814ef57167e924468e4f6ba3e9dc502, type: 2}
  - m_RefCount: 1
    m_Data: {fileID: 11400000, guid: b8612d00e0f707243b90f12635907422, type: 2}
  - m_RefCount: 1
    m_Data: {fileID: 11400000, guid: 6ffb33aef9ee79b488c7b3b2e399bf45, type: 2}
  - m_RefCount: 1
    m_Data: {fileID: 11400000, guid: 4a040ec0d41f7ae43875f0dfe958576e, type: 2}
  - m_RefCount: 1
    m_Data: {fileID: 11400000, guid: b711afe5ae32c034baccb066d8a365df, type: 2}
  - m_RefCount: 1
    m_Data: {fileID: 11400000, guid: 1a514b699b4b1c94f852134b35d167eb, type: 2}
  - m_RefCount: 1
    m_Data: {fileID: 11400000, guid: 812f89c06c2fadb498c6c6ecd948918b, type: 2}
  - m_RefCount: 1
    m_Data: {fileID: 11400000, guid: 485149046560e8743b9996a52d4e0ccb, type: 2}
  - m_RefCount: 1
    m_Data: {fileID: 11400000, guid: d90db43d45edd8646b4f440ca4599c48, type: 2}
  - m_RefCount: 1
    m_Data: {fileID: 11400000, guid: 553247cdc6664f24fb5ebe9c88e5c83f, type: 2}
  - m_RefCount: 1
    m_Data: {fileID: 11400000, guid: 2f2fd822f8e3a7e46b275e1fae20cdcb, type: 2}
  - m_RefCount: 1
    m_Data: {fileID: 11400000, guid: edc7b075e9153ec4fb107ad524915c79, type: 2}
  - m_RefCount: 1
    m_Data: {fileID: 11400000, guid: 6abcd3338e9b4424987999839360bfed, type: 2}
  - m_RefCount: 1
    m_Data: {fileID: 11400000, guid: 8ac3fbb3cff26284485458ff30246dce, type: 2}
  - m_RefCount: 1
    m_Data: {fileID: 11400000, guid: 9d143ebdbb014ac46b3414f2bb7891f0, type: 2}
  - m_RefCount: 1
    m_Data: {fileID: 11400000, guid: cf9e7c19ec57f8b43b20d13643c86eb5, type: 2}
  - m_RefCount: 1
    m_Data: {fileID: 11400000, guid: f6f8532e8ce84a44ca94e8518921565a, type: 2}
  - m_RefCount: 1
    m_Data: {fileID: 11400000, guid: 0dc68ac9140dfde40982f7630bb406f7, type: 2}
  - m_RefCount: 1
    m_Data: {fileID: 11400000, guid: 9ff1881f0fee37d4e88b748dc3b182b3, type: 2}
  - m_RefCount: 1
    m_Data: {fileID: 11400000, guid: 22e11f090379b3c4195753eadc9aa8bc, type: 2}
  - m_RefCount: 1
    m_Data: {fileID: 11400000, guid: d1fa15829d59ca742bf67bad5cd3799d, type: 2}
  - m_RefCount: 1
    m_Data: {fileID: 11400000, guid: c4a2b8c4b435c6744994c44e31f5394c, type: 2}
  - m_RefCount: 1
    m_Data: {fileID: 11400000, guid: c503d997f66fa3940af6040d5b46e9e0, type: 2}
  - m_RefCount: 1
    m_Data: {fileID: 11400000, guid: c380eeae2b50bc244ad45543780fdda0, type: 2}
  - m_RefCount: 1
    m_Data: {fileID: 11400000, guid: bc0540610b4fa6846aeb19c559ed1541, type: 2}
  - m_RefCount: 1
    m_Data: {fileID: 11400000, guid: 9880f87394106024586c0c27dd558497, type: 2}
  - m_RefCount: 1
    m_Data: {fileID: 11400000, guid: 99fde686785e2f24abe16ad2c9c1934a, type: 2}
  - m_RefCount: 1
    m_Data: {fileID: 11400000, guid: a54cda71fb2fc594ba5450295e437802, type: 2}
  - m_RefCount: 1
    m_Data: {fileID: 11400000, guid: 7a145dd897e1a7f4f8242abf953a41e1, type: 2}
  - m_RefCount: 1
    m_Data: {fileID: 11400000, guid: d5a35dfec143131449d056243cd9d9c9, type: 2}
  - m_RefCount: 1
    m_Data: {fileID: 11400000, guid: 88849495749fb44428d09c1a7661116b, type: 2}
  - m_RefCount: 1
    m_Data: {fileID: 11400000, guid: 68b032ada0f8cd247bc34d1b260a633d, type: 2}
  - m_RefCount: 1
    m_Data: {fileID: 11400000, guid: 79a78021bc279ca4981d9eb71dcc2ea6, type: 2}
  - m_RefCount: 1
    m_Data: {fileID: 11400000, guid: a7dd5d122c1f8184690ea8bf0821ec85, type: 2}
  - m_RefCount: 1
    m_Data: {fileID: 11400000, guid: dad94da36f428f641b31faf023d9c98e, type: 2}
  - m_RefCount: 1
    m_Data: {fileID: 11400000, guid: 24f9d8db226203e4bb0fdd607776cb7d, type: 2}
  - m_RefCount: 1
    m_Data: {fileID: 11400000, guid: e2341bda3403837459c678fe10154ae2, type: 2}
  - m_RefCount: 1
    m_Data: {fileID: 11400000, guid: 555e77a90ca84eb479f50940a1742dfd, type: 2}
  - m_RefCount: 1
    m_Data: {fileID: 11400000, guid: a567fffacd952d542af9d3c74dbe3d75, type: 2}
  - m_RefCount: 1
    m_Data: {fileID: 11400000, guid: 112676a470f90524a95275d7353fd651, type: 2}
  - m_RefCount: 1
    m_Data: {fileID: 11400000, guid: 0e73ca1bf82fb044a8b087a1e4bdf324, type: 2}
  - m_RefCount: 1
    m_Data: {fileID: 11400000, guid: c682a35ec76b25e43bc23be6ef499a3b, type: 2}
  - m_RefCount: 1
    m_Data: {fileID: 11400000, guid: 56832299a5e5dc44abbfbdf2c1294024, type: 2}
  - m_RefCount: 1
    m_Data: {fileID: 11400000, guid: f1dac4a885da9d54aa289f7151d8e511, type: 2}
  - m_RefCount: 1
    m_Data: {fileID: 11400000, guid: dc540be40ff7d114e97f53d57cd00f6f, type: 2}
  - m_RefCount: 1
    m_Data: {fileID: 11400000, guid: efa3d54ebc039cc4ba316f3a1d8bd941, type: 2}
  - m_RefCount: 1
    m_Data: {fileID: 11400000, guid: b10e5f83a64d57d42890dfc0a57f7cad, type: 2}
  - m_RefCount: 1
    m_Data: {fileID: 11400000, guid: b0fc06760aec2b6478071d1437f893f4, type: 2}
  - m_RefCount: 1
    m_Data: {fileID: 11400000, guid: a9208d8ad2bea4b4090729b3de1234f8, type: 2}
  - m_RefCount: 1
    m_Data: {fileID: 11400000, guid: 57f1f575d0b053a49abedf95682dca54, type: 2}
  - m_RefCount: 1
    m_Data: {fileID: 11400000, guid: c1ca50ab94687fe47a3cfccb417d67bd, type: 2}
  - m_RefCount: 1
    m_Data: {fileID: 11400000, guid: 88755517e1b3b6f488c89a9fccce7b9a, type: 2}
  - m_RefCount: 1
    m_Data: {fileID: 11400000, guid: 6a92f0fd110f13b49b80d305b36318c1, type: 2}
  - m_RefCount: 1
    m_Data: {fileID: 11400000, guid: 4cf34a7f38adb0245bcdc6fa5a057c20, type: 2}
  - m_RefCount: 1
    m_Data: {fileID: 11400000, guid: 51c0030a2d9ddcb43bdd1c59eab3e81e, type: 2}
  - m_RefCount: 1
    m_Data: {fileID: 11400000, guid: 5d468bbe8820812448143f442d06961e, type: 2}
  - m_RefCount: 1
    m_Data: {fileID: 11400000, guid: 671832fbd5b5ef64aba9cf95fd56878d, type: 2}
  - m_RefCount: 1
    m_Data: {fileID: 11400000, guid: 3bc3b6464767baa4983d32869c3c0133, type: 2}
  - m_RefCount: 1
    m_Data: {fileID: 11400000, guid: 53d22ec7f4d1feb41844459b9344c835, type: 2}
  - m_RefCount: 1
    m_Data: {fileID: 11400000, guid: 57321d80ccdaffa479242309198a3e97, type: 2}
  - m_RefCount: 1
    m_Data: {fileID: 11400000, guid: 22aec177f4d584b4d8c640e824b05771, type: 2}
  - m_RefCount: 1
    m_Data: {fileID: 11400000, guid: 28f422ef0be054b4eb131d6a6c8ef4c7, type: 2}
  - m_RefCount: 1
    m_Data: {fileID: 11400000, guid: 65bc52bcadb694446b02a131bffcd783, type: 2}
  - m_RefCount: 1
    m_Data: {fileID: 11400000, guid: 9ebb787458278d54894dee0fead9f351, type: 2}
  - m_RefCount: 1
    m_Data: {fileID: 11400000, guid: b2d93eef04de9e944b2872c7a0ec1bec, type: 2}
  - m_RefCount: 1
    m_Data: {fileID: 11400000, guid: bc25d595c7d7e9d479201adb0ad9ed3b, type: 2}
  - m_RefCount: 1
    m_Data: {fileID: 11400000, guid: fc8e2775ed2572d4190b4b34ca57936d, type: 2}
  - m_RefCount: 1
    m_Data: {fileID: 11400000, guid: 93394064a282e13408fa57181ee95147, type: 2}
  - m_RefCount: 1
    m_Data: {fileID: 11400000, guid: 73c6576bbb8e97d47aab132af51f51a1, type: 2}
  - m_RefCount: 1
    m_Data: {fileID: 11400000, guid: a818430df78dd1749b5a4e7d997bed38, type: 2}
  - m_RefCount: 1
    m_Data: {fileID: 11400000, guid: cd792f33eba7e734d91d2ca668fbdc5d, type: 2}
  - m_RefCount: 1
    m_Data: {fileID: 11400000, guid: d51eda354f30ce24c9cad3ce71031a30, type: 2}
  - m_RefCount: 1
    m_Data: {fileID: 11400000, guid: d6e7ef5b3a13409449d31c606f32b90b, type: 2}
  - m_RefCount: 1
    m_Data: {fileID: 11400000, guid: adc6c983a55d2864b9e4ea86c81f3bac, type: 2}
  - m_RefCount: 1
    m_Data: {fileID: 11400000, guid: b59303ba3a9d2c740b2183e6ef3fce4a, type: 2}
  - m_RefCount: 1
    m_Data: {fileID: 11400000, guid: 4fd8d4a1daf95924da7c3898386a7e3c, type: 2}
  - m_RefCount: 1
    m_Data: {fileID: 11400000, guid: a331a58db6cfc91479f01904a6b66a4a, type: 2}
  - m_RefCount: 1
    m_Data: {fileID: 11400000, guid: 85ecbf2fa984f63419f9e1fcf01486a3, type: 2}
  - m_RefCount: 1
    m_Data: {fileID: 11400000, guid: 27552484192107a458cbb4b8af52dd90, type: 2}
  - m_RefCount: 1
    m_Data: {fileID: 11400000, guid: 0eb7421ad6450b142b83a17485292e71, type: 2}
  - m_RefCount: 1
    m_Data: {fileID: 11400000, guid: 950fd71703f2b644fbcb06d4c451060a, type: 2}
  - m_RefCount: 1
    m_Data: {fileID: 11400000, guid: 1d138c2eb46c84343b6638fd8a8b03e1, type: 2}
  - m_RefCount: 1
    m_Data: {fileID: 11400000, guid: c235c3ade89cf63419a3b1642d7e33d2, type: 2}
  - m_RefCount: 1
    m_Data: {fileID: 11400000, guid: 3fd8e0443036e1347941fe9b7c06814e, type: 2}
  - m_RefCount: 1
    m_Data: {fileID: 11400000, guid: 934544097861cf548a430ed7f23822c8, type: 2}
  - m_RefCount: 1
    m_Data: {fileID: 11400000, guid: b3f1df7fedaca1c4c9a68e103e6605d0, type: 2}
  - m_RefCount: 1
    m_Data: {fileID: 11400000, guid: 3fb14e7e70338f942aecd90c4c53b827, type: 2}
  - m_RefCount: 1
    m_Data: {fileID: 11400000, guid: cfa080ec8dc9b6b44a1b0287696c789f, type: 2}
  - m_RefCount: 1
    m_Data: {fileID: 11400000, guid: 0562205ea741f9542ba0612117de69a4, type: 2}
  - m_RefCount: 1
    m_Data: {fileID: 11400000, guid: 7c19762bae5f7c744b43c591debd2309, type: 2}
  - m_RefCount: 1
    m_Data: {fileID: 11400000, guid: 9ea862d790a28574886e7c3ff3aee471, type: 2}
  - m_RefCount: 1
    m_Data: {fileID: 11400000, guid: 4f98f064aad71a441918912ceb1d9e8e, type: 2}
  - m_RefCount: 1
    m_Data: {fileID: 11400000, guid: d412cc474746d8b479fc72230d0782ee, type: 2}
  - m_RefCount: 1
    m_Data: {fileID: 11400000, guid: 0d07c9e00ed276d48a11d7e0586f99d9, type: 2}
  - m_RefCount: 1
    m_Data: {fileID: 11400000, guid: 12f3c3df200ab0448bdf74441ca12c04, type: 2}
  - m_RefCount: 1
    m_Data: {fileID: 11400000, guid: a6c1cf7ba175cc6468f5aa1062ae5754, type: 2}
  - m_RefCount: 1
    m_Data: {fileID: 11400000, guid: d96bd2c5d88ca56418442183de6ca8fd, type: 2}
  - m_RefCount: 1
    m_Data: {fileID: 11400000, guid: 3d7b4edc3de05f24aa93d8db93cd43ef, type: 2}
  - m_RefCount: 1
    m_Data: {fileID: 11400000, guid: 6c8a57d054435dc47a675cedf46dd5e2, type: 2}
  - m_RefCount: 1
    m_Data: {fileID: 11400000, guid: a5836cea6384568408b9c31c9ae5f079, type: 2}
  - m_RefCount: 1
    m_Data: {fileID: 11400000, guid: 4ea72ee058b613045bf8b1fe151de0ea, type: 2}
  - m_RefCount: 1
    m_Data: {fileID: 11400000, guid: a960933e21c96f54a8dc34882152f8c9, type: 2}
  - m_RefCount: 1
    m_Data: {fileID: 11400000, guid: 0e61243a556f20d4bae37ece299e1689, type: 2}
  - m_RefCount: 1
    m_Data: {fileID: 11400000, guid: 0263841d2d6b6e344b4dfe3588528def, type: 2}
  - m_RefCount: 1
    m_Data: {fileID: 11400000, guid: 9fa59f991ec4be24aa92388e32b36327, type: 2}
  - m_RefCount: 1
    m_Data: {fileID: 11400000, guid: ac678a7f74cc3d04da430c3a6c691ef1, type: 2}
  - m_RefCount: 1
    m_Data: {fileID: 11400000, guid: dbe1d35e864619641bbe03ad1bf4e0df, type: 2}
  - m_RefCount: 1
    m_Data: {fileID: 11400000, guid: 2d7df55503e8e20499b2058d296a9c59, type: 2}
  - m_RefCount: 1
    m_Data: {fileID: 11400000, guid: 04c34df054e6184409ca05672f8a1dfa, type: 2}
  - m_RefCount: 1
    m_Data: {fileID: 11400000, guid: d369fe245a628b7468136ae95abc738c, type: 2}
  - m_RefCount: 1
    m_Data: {fileID: 11400000, guid: e8c62f989fa0f17409e4cfbd87b092c0, type: 2}
  - m_RefCount: 1
    m_Data: {fileID: 11400000, guid: 42e94aa63d2c0af4593b4ff853931f29, type: 2}
  - m_RefCount: 1
    m_Data: {fileID: 11400000, guid: d8c2a27799ee48144b1291427c336c6d, type: 2}
  - m_RefCount: 1
    m_Data: {fileID: 11400000, guid: b14f0d39815119147ab8c5a192190582, type: 2}
  - m_RefCount: 1
    m_Data: {fileID: 11400000, guid: 3c36b6b9400fab541acd8a76fdc20921, type: 2}
  - m_RefCount: 1
    m_Data: {fileID: 11400000, guid: c7ccb538d6668f840b0f6610671c4742, type: 2}
  - m_RefCount: 1
    m_Data: {fileID: 11400000, guid: 9cd4346eb415cd046ba79fc855352b7f, type: 2}
  - m_RefCount: 1
    m_Data: {fileID: 11400000, guid: 139432cbade35d344a623c39348bc3ac, type: 2}
  - m_RefCount: 1
    m_Data: {fileID: 11400000, guid: b780452eed62e824e8a3fbc6db0a194f, type: 2}
  - m_RefCount: 1
    m_Data: {fileID: 11400000, guid: cf5993fae95a7924caf08cbbbf282009, type: 2}
  - m_RefCount: 1
    m_Data: {fileID: 11400000, guid: 3bfd1a35d85c52741b4a9ac1c7a3b332, type: 2}
  - m_RefCount: 1
    m_Data: {fileID: 11400000, guid: 3bb7057e36cb400439b6fbb8855b275e, type: 2}
  - m_RefCount: 1
    m_Data: {fileID: 11400000, guid: af3cb0a2bdee75f449135c9e69e85e9f, type: 2}
  - m_RefCount: 1
    m_Data: {fileID: 11400000, guid: 57167a6054b38ea41a1915342385b997, type: 2}
  - m_RefCount: 1
    m_Data: {fileID: 11400000, guid: 3cca21a17aeffb843835c57e5d8aae95, type: 2}
  - m_RefCount: 1
    m_Data: {fileID: 11400000, guid: dd258aa14d96e434badbbfd4c8cc9b6e, type: 2}
  - m_RefCount: 1
    m_Data: {fileID: 11400000, guid: 25d0e7b67cf7a5145a88379a2a7dc8a7, type: 2}
  - m_RefCount: 1
    m_Data: {fileID: 11400000, guid: 80368a55defd0bf44926567197102037, type: 2}
  - m_RefCount: 1
    m_Data: {fileID: 11400000, guid: 5b0aa3a7dd9689845a8526997ad0d18e, type: 2}
  - m_RefCount: 1
    m_Data: {fileID: 11400000, guid: d79815721ceb968459f589540214d879, type: 2}
  - m_RefCount: 1
    m_Data: {fileID: 11400000, guid: d38af6dc284e31a47b2651dbb5c67ec9, type: 2}
  - m_RefCount: 1
    m_Data: {fileID: 11400000, guid: 440a47de353dc0245be2b2eadfaf365a, type: 2}
  m_TileSpriteArray:
  - m_RefCount: 2
    m_Data: {fileID: -997061223, guid: 4e437acf7010b204497b5dc5b165a801, type: 3}
  - m_RefCount: 2
    m_Data: {fileID: 2115441369, guid: 4e437acf7010b204497b5dc5b165a801, type: 3}
  - m_RefCount: 1
    m_Data: {fileID: 333841974, guid: 4e437acf7010b204497b5dc5b165a801, type: 3}
  - m_RefCount: 1
    m_Data: {fileID: 1564203482, guid: 4e437acf7010b204497b5dc5b165a801, type: 3}
  - m_RefCount: 1
    m_Data: {fileID: -416476278, guid: 4e437acf7010b204497b5dc5b165a801, type: 3}
  - m_RefCount: 1
    m_Data: {fileID: -2033358174, guid: 4e437acf7010b204497b5dc5b165a801, type: 3}
  - m_RefCount: 1
    m_Data: {fileID: -1385317597, guid: 4e437acf7010b204497b5dc5b165a801, type: 3}
  - m_RefCount: 1
    m_Data: {fileID: -2130092246, guid: 4e437acf7010b204497b5dc5b165a801, type: 3}
  - m_RefCount: 1
    m_Data: {fileID: -1003501630, guid: 4e437acf7010b204497b5dc5b165a801, type: 3}
  - m_RefCount: 1
    m_Data: {fileID: -317014613, guid: 4e437acf7010b204497b5dc5b165a801, type: 3}
  - m_RefCount: 1
    m_Data: {fileID: -135441558, guid: 4e437acf7010b204497b5dc5b165a801, type: 3}
  - m_RefCount: 1
    m_Data: {fileID: 1539473323, guid: 4e437acf7010b204497b5dc5b165a801, type: 3}
  - m_RefCount: 1
    m_Data: {fileID: 239183459, guid: 4e437acf7010b204497b5dc5b165a801, type: 3}
  - m_RefCount: 1
    m_Data: {fileID: 718044234, guid: 4e437acf7010b204497b5dc5b165a801, type: 3}
  - m_RefCount: 1
    m_Data: {fileID: 595765439, guid: 4e437acf7010b204497b5dc5b165a801, type: 3}
  - m_RefCount: 1
    m_Data: {fileID: -222715035, guid: 4e437acf7010b204497b5dc5b165a801, type: 3}
  - m_RefCount: 1
    m_Data: {fileID: -564529011, guid: 4e437acf7010b204497b5dc5b165a801, type: 3}
  - m_RefCount: 1
    m_Data: {fileID: -1023720787, guid: 4e437acf7010b204497b5dc5b165a801, type: 3}
  - m_RefCount: 1
    m_Data: {fileID: -190837926, guid: 4e437acf7010b204497b5dc5b165a801, type: 3}
  - m_RefCount: 1
    m_Data: {fileID: 1418941220, guid: 4e437acf7010b204497b5dc5b165a801, type: 3}
  - m_RefCount: 1
    m_Data: {fileID: 1185065493, guid: 4e437acf7010b204497b5dc5b165a801, type: 3}
  - m_RefCount: 1
    m_Data: {fileID: 1280537303, guid: 4e437acf7010b204497b5dc5b165a801, type: 3}
  - m_RefCount: 1
    m_Data: {fileID: -28180702, guid: 4e437acf7010b204497b5dc5b165a801, type: 3}
  - m_RefCount: 1
    m_Data: {fileID: 749452965, guid: 4e437acf7010b204497b5dc5b165a801, type: 3}
  - m_RefCount: 1
    m_Data: {fileID: 1029299977, guid: 4e437acf7010b204497b5dc5b165a801, type: 3}
  - m_RefCount: 1
    m_Data: {fileID: 1228852511, guid: 4e437acf7010b204497b5dc5b165a801, type: 3}
  - m_RefCount: 1
    m_Data: {fileID: 1625763495, guid: 4e437acf7010b204497b5dc5b165a801, type: 3}
  - m_RefCount: 1
    m_Data: {fileID: -372833772, guid: 4e437acf7010b204497b5dc5b165a801, type: 3}
  - m_RefCount: 1
    m_Data: {fileID: 1939674591, guid: 4e437acf7010b204497b5dc5b165a801, type: 3}
  - m_RefCount: 1
    m_Data: {fileID: 830627500, guid: 4e437acf7010b204497b5dc5b165a801, type: 3}
  - m_RefCount: 1
    m_Data: {fileID: 730541092, guid: 4e437acf7010b204497b5dc5b165a801, type: 3}
  - m_RefCount: 1
    m_Data: {fileID: -1939088796, guid: 4e437acf7010b204497b5dc5b165a801, type: 3}
  - m_RefCount: 1
    m_Data: {fileID: 261614460, guid: 4e437acf7010b204497b5dc5b165a801, type: 3}
  - m_RefCount: 1
    m_Data: {fileID: -282572446, guid: 4e437acf7010b204497b5dc5b165a801, type: 3}
  - m_RefCount: 1
    m_Data: {fileID: 642313651, guid: 4e437acf7010b204497b5dc5b165a801, type: 3}
  - m_RefCount: 1
    m_Data: {fileID: -1189247151, guid: 4e437acf7010b204497b5dc5b165a801, type: 3}
  - m_RefCount: 1
    m_Data: {fileID: -612527084, guid: 4e437acf7010b204497b5dc5b165a801, type: 3}
  - m_RefCount: 1
    m_Data: {fileID: 1873961136, guid: 4e437acf7010b204497b5dc5b165a801, type: 3}
  - m_RefCount: 1
    m_Data: {fileID: -1365611149, guid: 4e437acf7010b204497b5dc5b165a801, type: 3}
  - m_RefCount: 1
    m_Data: {fileID: 20529015, guid: 4e437acf7010b204497b5dc5b165a801, type: 3}
  - m_RefCount: 1
    m_Data: {fileID: 1601890604, guid: 4e437acf7010b204497b5dc5b165a801, type: 3}
  - m_RefCount: 1
    m_Data: {fileID: 635156692, guid: 4e437acf7010b204497b5dc5b165a801, type: 3}
  - m_RefCount: 1
    m_Data: {fileID: 1414850065, guid: 4e437acf7010b204497b5dc5b165a801, type: 3}
  - m_RefCount: 1
    m_Data: {fileID: -37623757, guid: 4e437acf7010b204497b5dc5b165a801, type: 3}
  - m_RefCount: 1
    m_Data: {fileID: -770569925, guid: 4e437acf7010b204497b5dc5b165a801, type: 3}
  - m_RefCount: 1
    m_Data: {fileID: -1412383780, guid: 4e437acf7010b204497b5dc5b165a801, type: 3}
  - m_RefCount: 1
    m_Data: {fileID: 1743659535, guid: 4e437acf7010b204497b5dc5b165a801, type: 3}
  - m_RefCount: 1
    m_Data: {fileID: -1128431032, guid: 4e437acf7010b204497b5dc5b165a801, type: 3}
  - m_RefCount: 1
    m_Data: {fileID: -847901904, guid: 4e437acf7010b204497b5dc5b165a801, type: 3}
  - m_RefCount: 1
    m_Data: {fileID: 1994725261, guid: 4e437acf7010b204497b5dc5b165a801, type: 3}
  - m_RefCount: 1
    m_Data: {fileID: -871926902, guid: 4e437acf7010b204497b5dc5b165a801, type: 3}
  - m_RefCount: 1
    m_Data: {fileID: 1439499361, guid: 4e437acf7010b204497b5dc5b165a801, type: 3}
  - m_RefCount: 1
    m_Data: {fileID: 985935631, guid: 4e437acf7010b204497b5dc5b165a801, type: 3}
  - m_RefCount: 1
    m_Data: {fileID: 1991446106, guid: 4e437acf7010b204497b5dc5b165a801, type: 3}
  - m_RefCount: 1
    m_Data: {fileID: -1615734562, guid: 4e437acf7010b204497b5dc5b165a801, type: 3}
  - m_RefCount: 1
    m_Data: {fileID: -195357548, guid: 4e437acf7010b204497b5dc5b165a801, type: 3}
  - m_RefCount: 1
    m_Data: {fileID: -46337111, guid: 4e437acf7010b204497b5dc5b165a801, type: 3}
  - m_RefCount: 1
    m_Data: {fileID: -1374443745, guid: 4e437acf7010b204497b5dc5b165a801, type: 3}
  - m_RefCount: 1
    m_Data: {fileID: 1377815728, guid: 4e437acf7010b204497b5dc5b165a801, type: 3}
  - m_RefCount: 1
    m_Data: {fileID: 1438138947, guid: 4e437acf7010b204497b5dc5b165a801, type: 3}
  - m_RefCount: 1
    m_Data: {fileID: 792121176, guid: 4e437acf7010b204497b5dc5b165a801, type: 3}
  - m_RefCount: 1
    m_Data: {fileID: -179528484, guid: 4e437acf7010b204497b5dc5b165a801, type: 3}
  - m_RefCount: 1
    m_Data: {fileID: 1863854706, guid: 4e437acf7010b204497b5dc5b165a801, type: 3}
  - m_RefCount: 1
    m_Data: {fileID: 1088799559, guid: 4e437acf7010b204497b5dc5b165a801, type: 3}
  - m_RefCount: 1
    m_Data: {fileID: -933962271, guid: 4e437acf7010b204497b5dc5b165a801, type: 3}
  - m_RefCount: 1
    m_Data: {fileID: -1825193647, guid: 4e437acf7010b204497b5dc5b165a801, type: 3}
  - m_RefCount: 1
    m_Data: {fileID: 1400656909, guid: 4e437acf7010b204497b5dc5b165a801, type: 3}
  - m_RefCount: 1
    m_Data: {fileID: -162050230, guid: 4e437acf7010b204497b5dc5b165a801, type: 3}
  - m_RefCount: 1
    m_Data: {fileID: 153478807, guid: 4e437acf7010b204497b5dc5b165a801, type: 3}
  - m_RefCount: 1
    m_Data: {fileID: 2111304353, guid: 4e437acf7010b204497b5dc5b165a801, type: 3}
  - m_RefCount: 1
    m_Data: {fileID: 250164913, guid: 4e437acf7010b204497b5dc5b165a801, type: 3}
  - m_RefCount: 1
    m_Data: {fileID: -2008346541, guid: 4e437acf7010b204497b5dc5b165a801, type: 3}
  - m_RefCount: 1
    m_Data: {fileID: -565191108, guid: 4e437acf7010b204497b5dc5b165a801, type: 3}
  - m_RefCount: 1
    m_Data: {fileID: -1810194911, guid: 4e437acf7010b204497b5dc5b165a801, type: 3}
  - m_RefCount: 1
    m_Data: {fileID: -1318612046, guid: 4e437acf7010b204497b5dc5b165a801, type: 3}
  - m_RefCount: 1
    m_Data: {fileID: -385058384, guid: 4e437acf7010b204497b5dc5b165a801, type: 3}
  - m_RefCount: 1
    m_Data: {fileID: 506964710, guid: 4e437acf7010b204497b5dc5b165a801, type: 3}
  - m_RefCount: 1
    m_Data: {fileID: -1503828292, guid: 4e437acf7010b204497b5dc5b165a801, type: 3}
  - m_RefCount: 1
    m_Data: {fileID: 814547162, guid: 4e437acf7010b204497b5dc5b165a801, type: 3}
  - m_RefCount: 1
    m_Data: {fileID: 1703630280, guid: 4e437acf7010b204497b5dc5b165a801, type: 3}
  - m_RefCount: 1
    m_Data: {fileID: -993640687, guid: 4e437acf7010b204497b5dc5b165a801, type: 3}
  - m_RefCount: 1
    m_Data: {fileID: 785736780, guid: 4e437acf7010b204497b5dc5b165a801, type: 3}
  - m_RefCount: 1
    m_Data: {fileID: -1946060182, guid: 4e437acf7010b204497b5dc5b165a801, type: 3}
  - m_RefCount: 1
    m_Data: {fileID: -1083160440, guid: 4e437acf7010b204497b5dc5b165a801, type: 3}
  - m_RefCount: 1
    m_Data: {fileID: -1164016342, guid: 4e437acf7010b204497b5dc5b165a801, type: 3}
  - m_RefCount: 1
    m_Data: {fileID: -1638236944, guid: 4e437acf7010b204497b5dc5b165a801, type: 3}
  - m_RefCount: 1
    m_Data: {fileID: 1636975266, guid: 4e437acf7010b204497b5dc5b165a801, type: 3}
  - m_RefCount: 1
    m_Data: {fileID: 1668413822, guid: 4e437acf7010b204497b5dc5b165a801, type: 3}
  - m_RefCount: 1
    m_Data: {fileID: 730129644, guid: 4e437acf7010b204497b5dc5b165a801, type: 3}
  - m_RefCount: 1
    m_Data: {fileID: -1311631572, guid: 4e437acf7010b204497b5dc5b165a801, type: 3}
  - m_RefCount: 1
    m_Data: {fileID: 303500333, guid: 4e437acf7010b204497b5dc5b165a801, type: 3}
  - m_RefCount: 1
    m_Data: {fileID: 343815727, guid: 4e437acf7010b204497b5dc5b165a801, type: 3}
  - m_RefCount: 1
    m_Data: {fileID: -1383384767, guid: 4e437acf7010b204497b5dc5b165a801, type: 3}
  - m_RefCount: 1
    m_Data: {fileID: -712791577, guid: 4e437acf7010b204497b5dc5b165a801, type: 3}
  - m_RefCount: 1
    m_Data: {fileID: -1268456696, guid: 4e437acf7010b204497b5dc5b165a801, type: 3}
  - m_RefCount: 1
    m_Data: {fileID: 799626785, guid: 4e437acf7010b204497b5dc5b165a801, type: 3}
  - m_RefCount: 1
    m_Data: {fileID: 507558083, guid: 4e437acf7010b204497b5dc5b165a801, type: 3}
  - m_RefCount: 1
    m_Data: {fileID: 923249463, guid: 4e437acf7010b204497b5dc5b165a801, type: 3}
  - m_RefCount: 1
    m_Data: {fileID: 1084152006, guid: 4e437acf7010b204497b5dc5b165a801, type: 3}
  - m_RefCount: 1
    m_Data: {fileID: 1628915291, guid: 4e437acf7010b204497b5dc5b165a801, type: 3}
  - m_RefCount: 1
    m_Data: {fileID: -281156398, guid: 4e437acf7010b204497b5dc5b165a801, type: 3}
  - m_RefCount: 1
    m_Data: {fileID: -868696688, guid: 4e437acf7010b204497b5dc5b165a801, type: 3}
  - m_RefCount: 1
    m_Data: {fileID: 816280380, guid: 4e437acf7010b204497b5dc5b165a801, type: 3}
  - m_RefCount: 1
    m_Data: {fileID: 675393401, guid: 4e437acf7010b204497b5dc5b165a801, type: 3}
  - m_RefCount: 1
    m_Data: {fileID: 1977002035, guid: 4e437acf7010b204497b5dc5b165a801, type: 3}
  - m_RefCount: 1
    m_Data: {fileID: 529689311, guid: 4e437acf7010b204497b5dc5b165a801, type: 3}
  - m_RefCount: 1
    m_Data: {fileID: -17428863, guid: 4e437acf7010b204497b5dc5b165a801, type: 3}
  - m_RefCount: 1
    m_Data: {fileID: 1950968388, guid: 4e437acf7010b204497b5dc5b165a801, type: 3}
  - m_RefCount: 1
    m_Data: {fileID: 1592881774, guid: 4e437acf7010b204497b5dc5b165a801, type: 3}
  - m_RefCount: 1
    m_Data: {fileID: 34667443, guid: 4e437acf7010b204497b5dc5b165a801, type: 3}
  - m_RefCount: 1
    m_Data: {fileID: -1982359836, guid: 4e437acf7010b204497b5dc5b165a801, type: 3}
  - m_RefCount: 1
    m_Data: {fileID: 1933639764, guid: 4e437acf7010b204497b5dc5b165a801, type: 3}
  - m_RefCount: 1
    m_Data: {fileID: 1181111144, guid: 4e437acf7010b204497b5dc5b165a801, type: 3}
  - m_RefCount: 1
    m_Data: {fileID: -2126567206, guid: 4e437acf7010b204497b5dc5b165a801, type: 3}
  - m_RefCount: 1
    m_Data: {fileID: 1338130093, guid: 4e437acf7010b204497b5dc5b165a801, type: 3}
  - m_RefCount: 1
    m_Data: {fileID: 628588103, guid: 4e437acf7010b204497b5dc5b165a801, type: 3}
  - m_RefCount: 1
    m_Data: {fileID: -95951188, guid: 4e437acf7010b204497b5dc5b165a801, type: 3}
  - m_RefCount: 1
    m_Data: {fileID: 1392697616, guid: 4e437acf7010b204497b5dc5b165a801, type: 3}
  - m_RefCount: 1
    m_Data: {fileID: 104082802, guid: 4e437acf7010b204497b5dc5b165a801, type: 3}
  - m_RefCount: 1
    m_Data: {fileID: -402683514, guid: 4e437acf7010b204497b5dc5b165a801, type: 3}
  - m_RefCount: 1
    m_Data: {fileID: -394915468, guid: 4e437acf7010b204497b5dc5b165a801, type: 3}
  - m_RefCount: 1
    m_Data: {fileID: 1400364327, guid: 4e437acf7010b204497b5dc5b165a801, type: 3}
  - m_RefCount: 1
    m_Data: {fileID: -43633744, guid: 4e437acf7010b204497b5dc5b165a801, type: 3}
  - m_RefCount: 1
    m_Data: {fileID: -1608309203, guid: 4e437acf7010b204497b5dc5b165a801, type: 3}
  - m_RefCount: 1
    m_Data: {fileID: 496861533, guid: 4e437acf7010b204497b5dc5b165a801, type: 3}
  - m_RefCount: 1
    m_Data: {fileID: -348753422, guid: 4e437acf7010b204497b5dc5b165a801, type: 3}
  - m_RefCount: 1
    m_Data: {fileID: 2117929416, guid: 4e437acf7010b204497b5dc5b165a801, type: 3}
  - m_RefCount: 1
    m_Data: {fileID: -827784209, guid: 4e437acf7010b204497b5dc5b165a801, type: 3}
  - m_RefCount: 1
    m_Data: {fileID: 1738009914, guid: 4e437acf7010b204497b5dc5b165a801, type: 3}
  - m_RefCount: 1
    m_Data: {fileID: -1142446333, guid: 4e437acf7010b204497b5dc5b165a801, type: 3}
  - m_RefCount: 1
    m_Data: {fileID: 7067335, guid: 4e437acf7010b204497b5dc5b165a801, type: 3}
  - m_RefCount: 1
    m_Data: {fileID: -1297383610, guid: 4e437acf7010b204497b5dc5b165a801, type: 3}
  - m_RefCount: 1
    m_Data: {fileID: -981955173, guid: 4e437acf7010b204497b5dc5b165a801, type: 3}
  - m_RefCount: 1
    m_Data: {fileID: -958936651, guid: 4e437acf7010b204497b5dc5b165a801, type: 3}
  - m_RefCount: 1
    m_Data: {fileID: -369717639, guid: 4e437acf7010b204497b5dc5b165a801, type: 3}
  - m_RefCount: 1
    m_Data: {fileID: 1447681836, guid: 4e437acf7010b204497b5dc5b165a801, type: 3}
  - m_RefCount: 1
    m_Data: {fileID: 792780744, guid: 4e437acf7010b204497b5dc5b165a801, type: 3}
  m_TileMatrixArray:
  - m_RefCount: 139
    m_Data:
      e00: 1
      e01: 0
      e02: 0
      e03: 0
      e10: 0
      e11: 1
      e12: 0
      e13: 0
      e20: 0
      e21: 0
      e22: 1
      e23: 0
      e30: 0
      e31: 0
      e32: 0
      e33: 1
  m_TileColorArray:
  - m_RefCount: 139
    m_Data: {r: 1, g: 1, b: 1, a: 1}
  m_TileObjectToInstantiateArray: []
  m_AnimationFrameRate: 1
  m_Color: {r: 1, g: 1, b: 1, a: 1}
  m_Origin: {x: -2, y: -8, z: 0}
  m_Size: {x: 14, y: 12, z: 1}
  m_TileAnchor: {x: 0.5, y: 0.5, z: 0}
  m_TileOrientation: 0
  m_TileOrientationMatrix:
    e00: 1
    e01: 0
    e02: 0
    e03: 0
    e10: 0
    e11: 1
    e12: 0
    e13: 0
    e20: 0
    e21: 0
    e22: 1
    e23: 0
    e30: 0
    e31: 0
    e32: 0
    e33: 1
--- !u!483693784 &1046818167030005730
TilemapRenderer:
  m_ObjectHideFlags: 0
  m_CorrespondingSourceObject: {fileID: 0}
  m_PrefabInstance: {fileID: 0}
  m_PrefabAsset: {fileID: 0}
  m_GameObject: {fileID: 3225719786266758064}
  m_Enabled: 1
  m_CastShadows: 0
  m_ReceiveShadows: 0
  m_DynamicOccludee: 0
  m_StaticShadowCaster: 0
  m_MotionVectors: 1
  m_LightProbeUsage: 0
  m_ReflectionProbeUsage: 0
  m_RayTracingMode: 0
  m_RayTraceProcedural: 0
  m_RenderingLayerMask: 1
  m_RendererPriority: 0
  m_Materials:
  - {fileID: 10754, guid: 0000000000000000f000000000000000, type: 0}
  m_StaticBatchInfo:
    firstSubMesh: 0
    subMeshCount: 0
  m_StaticBatchRoot: {fileID: 0}
  m_ProbeAnchor: {fileID: 0}
  m_LightProbeVolumeOverride: {fileID: 0}
  m_ScaleInLightmap: 1
  m_ReceiveGI: 1
  m_PreserveUVs: 0
  m_IgnoreNormalsForChartDetection: 0
  m_ImportantGI: 0
  m_StitchLightmapSeams: 1
  m_SelectedEditorRenderState: 0
  m_MinimumChartSize: 4
  m_AutoUVMaxDistance: 0.5
  m_AutoUVMaxAngle: 89
  m_LightmapParameters: {fileID: 0}
  m_SortingLayerID: 0
  m_SortingLayer: 0
  m_SortingOrder: 0
  m_ChunkSize: {x: 32, y: 32, z: 32}
  m_ChunkCullingBounds: {x: 0, y: 0, z: 0}
  m_MaxChunkCount: 16
  m_MaxFrameAge: 16
  m_SortOrder: 0
  m_Mode: 0
  m_DetectChunkCullingBounds: 0
  m_MaskInteraction: 0
--- !u!114 &2389945160561910085
MonoBehaviour:
  m_ObjectHideFlags: 0
  m_CorrespondingSourceObject: {fileID: 0}
  m_PrefabInstance: {fileID: 0}
  m_PrefabAsset: {fileID: 0}
  m_GameObject: {fileID: 0}
  m_Enabled: 1
  m_EditorHideFlags: 0
  m_Script: {fileID: 12395, guid: 0000000000000000e000000000000000, type: 0}
  m_Name: Palette Settings
  m_EditorClassIdentifier: 
  cellSizing: 0
  m_TransparencySortMode: 0
  m_TransparencySortAxis: {x: 0, y: 0, z: 1}
